,Image_FPR,Image_TPR,Patient_FPR,Patient_TPR,Comb_FPR,Comb_TPR
0,0.0,0.0,0.0,0.0,0.0,0.0
1,0.0,0.006578947368421052,0.0,0.006578947368421052,0.0,0.006578947368421052
2,0.00039300451955197487,0.006578947368421052,0.0,0.013157894736842105,0.0,0.019736842105263157
3,0.00039300451955197487,0.013157894736842105,0.00039300451955197487,0.013157894736842105,0.00039300451955197487,0.019736842105263157
4,0.0041265474552957355,0.013157894736842105,0.00039300451955197487,0.019736842105263157,0.00039300451955197487,0.02631578947368421
5,0.0041265474552957355,0.02631578947368421,0.0005895067793279622,0.019736842105263157,0.0007860090391039497,0.02631578947368421
6,0.004323049715071723,0.02631578947368421,0.0005895067793279622,0.02631578947368421,0.0007860090391039497,0.03289473684210526
7,0.004323049715071723,0.039473684210526314,0.0009825112988799372,0.02631578947368421,0.0009825112988799372,0.03289473684210526
8,0.0049125564943996855,0.039473684210526314,0.0009825112988799372,0.03289473684210526,0.0009825112988799372,0.039473684210526314
9,0.0049125564943996855,0.046052631578947366,0.0021615248575358615,0.03289473684210526,0.001375515818431912,0.039473684210526314
10,0.0053055610139516604,0.046052631578947366,0.0021615248575358615,0.039473684210526314,0.001375515818431912,0.046052631578947366
11,0.0053055610139516604,0.06578947368421052,0.0025545293770878365,0.039473684210526314,0.0015720180782078995,0.046052631578947366
12,0.00609157005305561,0.06578947368421052,0.0025545293770878365,0.05263157894736842,0.0015720180782078995,0.05263157894736842
13,0.00609157005305561,0.07236842105263158,0.003340538416191786,0.05263157894736842,0.002358027117311849,0.05263157894736842
14,0.006288072312831598,0.07236842105263158,0.003340538416191786,0.06578947368421052,0.002358027117311849,0.06578947368421052
15,0.006288072312831598,0.07894736842105263,0.003733542935743761,0.06578947368421052,0.002751031636863824,0.06578947368421052
16,0.0076635881312635094,0.07894736842105263,0.003733542935743761,0.07894736842105263,0.002751031636863824,0.07894736842105263
17,0.0076635881312635094,0.08552631578947369,0.0045195519748477105,0.07894736842105263,0.005698565533503635,0.07894736842105263
18,0.007860090391039498,0.08552631578947369,0.0045195519748477105,0.08552631578947369,0.005698565533503635,0.08552631578947369
19,0.007860090391039498,0.09868421052631579,0.005502063273727648,0.08552631578947369,0.0076635881312635094,0.08552631578947369
20,0.008253094910591471,0.09868421052631579,0.005502063273727648,0.09210526315789473,0.0076635881312635094,0.09210526315789473
21,0.008253094910591471,0.1118421052631579,0.005698565533503635,0.09210526315789473,0.008842601689919434,0.09210526315789473
22,0.008646099430143446,0.1118421052631579,0.005698565533503635,0.09868421052631579,0.008842601689919434,0.09868421052631579
23,0.008646099430143446,0.11842105263157894,0.00609157005305561,0.09868421052631579,0.010611122027903321,0.09868421052631579
24,0.009432108469247396,0.11842105263157894,0.00609157005305561,0.10526315789473684,0.010611122027903321,0.1118421052631579
25,0.009432108469247396,0.125,0.006288072312831598,0.10526315789473684,0.013755158184319119,0.1118421052631579
26,0.009825112988799371,0.125,0.006288072312831598,0.1118421052631579,0.013755158184319119,0.13157894736842105
27,0.009825112988799371,0.13157894736842105,0.006681076832383572,0.1118421052631579,0.01689919434073492,0.13157894736842105
28,0.010807624287679308,0.13157894736842105,0.006681076832383572,0.11842105263157894,0.01689919434073492,0.13815789473684212
29,0.010807624287679308,0.13815789473684212,0.007074081351935547,0.11842105263157894,0.018078207899390842,0.13815789473684212
30,0.01139713106700727,0.13815789473684212,0.007074081351935547,0.13815789473684212,0.018078207899390842,0.14473684210526316
31,0.01139713106700727,0.14473684210526316,0.007860090391039498,0.13815789473684212,0.01925722145804677,0.14473684210526316
32,0.01218314010611122,0.14473684210526316,0.007860090391039498,0.1513157894736842,0.01925722145804677,0.1513157894736842
33,0.01218314010611122,0.1513157894736842,0.00844959717036746,0.1513157894736842,0.01984672823737473,0.1513157894736842
34,0.013558655924543132,0.1513157894736842,0.00844959717036746,0.15789473684210525,0.01984672823737473,0.15789473684210525
35,0.013558655924543132,0.15789473684210525,0.009039103949695421,0.15789473684210525,0.02220475535468658,0.15789473684210525
36,0.013755158184319119,0.15789473684210525,0.009039103949695421,0.18421052631578946,0.02220475535468658,0.16447368421052633
37,0.013755158184319119,0.16447368421052633,0.00923560620947141,0.18421052631578946,0.023973275692670465,0.16447368421052633
38,0.013951660444095107,0.16447368421052633,0.00923560620947141,0.19078947368421054,0.023973275692670465,0.17105263157894737
39,0.013951660444095107,0.17105263157894737,0.009432108469247396,0.19078947368421054,0.02574179603065435,0.17105263157894737
40,0.015916683041854982,0.17105263157894737,0.009432108469247396,0.19736842105263158,0.02574179603065435,0.17763157894736842
41,0.015916683041854982,0.18421052631578946,0.010414619768127334,0.19736842105263158,0.026134800550206328,0.17763157894736842
42,0.016309687561406955,0.18421052631578946,0.010414619768127334,0.20394736842105263,0.026134800550206328,0.18421052631578946
43,0.016309687561406955,0.19078947368421054,0.011790135586559246,0.20394736842105263,0.027706818628414228,0.18421052631578946
44,0.016506189821182942,0.19078947368421054,0.011790135586559246,0.21710526315789475,0.027706818628414228,0.19078947368421054
45,0.016506189821182942,0.19736842105263158,0.012576144625663196,0.21710526315789475,0.028296325407742188,0.19078947368421054
46,0.016702692080958932,0.19736842105263158,0.012576144625663196,0.2236842105263158,0.028296325407742188,0.20394736842105263
47,0.016702692080958932,0.20394736842105263,0.013951660444095107,0.2236842105263158,0.03202986834348595,0.20394736842105263
48,0.01689919434073492,0.20394736842105263,0.013951660444095107,0.23684210526315788,0.03202986834348595,0.21052631578947367
49,0.01689919434073492,0.21710526315789475,0.014344664963647082,0.23684210526315788,0.03222637060326194,0.21052631578947367
50,0.01768520337983887,0.21710526315789475,0.014344664963647082,0.24342105263157895,0.03222637060326194,0.21710526315789475
51,0.01768520337983887,0.2236842105263158,0.014737669483199057,0.24342105263157895,0.033405384161917864,0.21710526315789475
52,0.017881705639614855,0.2236842105263158,0.014737669483199057,0.2631578947368421,0.033405384161917864,0.23026315789473684
53,0.017881705639614855,0.23026315789473684,0.015720180782078996,0.2631578947368421,0.03360188642169385,0.23026315789473684
54,0.01984672823737473,0.23026315789473684,0.015720180782078996,0.28289473684210525,0.03360188642169385,0.23684210526315788
55,0.01984672823737473,0.23684210526315788,0.016309687561406955,0.28289473684210525,0.03419139320102181,0.23684210526315788
56,0.02004323049715072,0.23684210526315788,0.016309687561406955,0.2894736842105263,0.03419139320102181,0.24342105263157895
57,0.02004323049715072,0.2631578947368421,0.016506189821182942,0.2894736842105263,0.03478089998034977,0.24342105263157895
58,0.023187266653566515,0.2631578947368421,0.016506189821182942,0.29605263157894735,0.03478089998034977,0.25
59,0.023187266653566515,0.26973684210526316,0.01906071919827078,0.29605263157894735,0.04165847907250934,0.25
60,0.023383768913342505,0.26973684210526316,0.01906071919827078,0.3026315789473684,0.04165847907250934,0.2565789473684211
61,0.023383768913342505,0.27631578947368424,0.02004323049715072,0.3026315789473684,0.04283749263116526,0.2565789473684211
62,0.02416977795244645,0.27631578947368424,0.02004323049715072,0.3092105263157895,0.04283749263116526,0.26973684210526316
63,0.02416977795244645,0.28289473684210525,0.020239732756926705,0.3092105263157895,0.043426999410493224,0.26973684210526316
64,0.026331302809982315,0.28289473684210525,0.020239732756926705,0.3157894736842105,0.043426999410493224,0.27631578947368424
65,0.026331302809982315,0.2894736842105263,0.02082923953625467,0.3157894736842105,0.04460601296914914,0.27631578947368424
66,0.027706818628414228,0.2894736842105263,0.02082923953625467,0.3223684210526316,0.04460601296914914,0.28289473684210525
67,0.027706818628414228,0.29605263157894735,0.02141874631558263,0.3223684210526316,0.046964040086461,0.28289473684210525
68,0.031047357044606014,0.29605263157894735,0.02141874631558263,0.32894736842105265,0.046964040086461,0.2894736842105263
69,0.031047357044606014,0.3026315789473684,0.021615248575358615,0.32894736842105265,0.04892906268422087,0.2894736842105263
70,0.033012379642365884,0.3026315789473684,0.021615248575358615,0.3355263157894737,0.04892906268422087,0.29605263157894735
71,0.033012379642365884,0.3092105263157895,0.023187266653566515,0.3355263157894737,0.051287089801532716,0.29605263157894735
72,0.0359599135390057,0.3092105263157895,0.023187266653566515,0.34210526315789475,0.051287089801532716,0.3026315789473684
73,0.0359599135390057,0.3157894736842105,0.026331302809982315,0.34210526315789475,0.052269601100412656,0.3026315789473684
74,0.03635291805855767,0.3157894736842105,0.026331302809982315,0.35526315789473684,0.052269601100412656,0.3092105263157895
75,0.03635291805855767,0.3355263157894737,0.02731381410886225,0.35526315789473684,0.0546276282177245,0.3092105263157895
76,0.03812143839654156,0.3355263157894737,0.02731381410886225,0.3618421052631579,0.0546276282177245,0.3157894736842105
77,0.03812143839654156,0.35526315789473684,0.02888583218707015,0.3618421052631579,0.05580664177638043,0.3157894736842105
78,0.0391039496954215,0.35526315789473684,0.02888583218707015,0.3684210526315789,0.05580664177638043,0.3223684210526316
79,0.0391039496954215,0.3618421052631579,0.029278836706622124,0.3684210526315789,0.056592650815484376,0.3223684210526316
80,0.03949695421497347,0.3618421052631579,0.029278836706622124,0.375,0.056592650815484376,0.3355263157894737
81,0.03949695421497347,0.375,0.0296718412261741,0.375,0.0577716643741403,0.3355263157894737
82,0.03969345647474946,0.375,0.0296718412261741,0.3815789473684211,0.0577716643741403,0.34210526315789475
83,0.03969345647474946,0.3815789473684211,0.029868343485950088,0.3815789473684211,0.05895067793279623,0.34210526315789475
84,0.040872470033405384,0.3815789473684211,0.029868343485950088,0.3881578947368421,0.05895067793279623,0.34868421052631576
85,0.040872470033405384,0.3881578947368421,0.030064845745726074,0.3881578947368421,0.05993318923167616,0.34868421052631576
86,0.04126547455295736,0.3881578947368421,0.030064845745726074,0.39473684210526316,0.05993318923167616,0.35526315789473684
87,0.04126547455295736,0.39473684210526316,0.03045785026527805,0.39473684210526316,0.0609157005305561,0.35526315789473684
88,0.041461976812733344,0.39473684210526316,0.03045785026527805,0.40131578947368424,0.0609157005305561,0.3618421052631579
89,0.041461976812733344,0.40131578947368424,0.035566909019453724,0.40131578947368424,0.06170170956966005,0.3618421052631579
90,0.04283749263116526,0.40131578947368424,0.035566909019453724,0.40789473684210525,0.06170170956966005,0.375
91,0.04283749263116526,0.4144736842105263,0.0359599135390057,0.40789473684210525,0.06425623894674788,0.375
92,0.043426999410493224,0.4144736842105263,0.0359599135390057,0.4144736842105263,0.06425623894674788,0.3815789473684211
93,0.043426999410493224,0.42105263157894735,0.037138927097661624,0.4144736842105263,0.0687757909215956,0.3815789473684211
94,0.04578502652780507,0.42105263157894735,0.037138927097661624,0.42105263157894735,0.0687757909215956,0.39473684210526316
95,0.04578502652780507,0.4276315789473684,0.038710945175869524,0.42105263157894735,0.07172332481823541,0.39473684210526316
96,0.04598152878758106,0.4276315789473684,0.038710945175869524,0.4276315789473684,0.07172332481823541,0.40131578947368424
97,0.04598152878758106,0.4407894736842105,0.0391039496954215,0.4276315789473684,0.07270583611711534,0.40131578947368424
98,0.04676753782668501,0.4407894736842105,0.0391039496954215,0.4342105263157895,0.07270583611711534,0.40789473684210525
99,0.04676753782668501,0.4473684210526316,0.039889958734525444,0.4342105263157895,0.0734918451562193,0.40789473684210525
100,0.04873256042444488,0.4473684210526316,0.039889958734525444,0.4407894736842105,0.0734918451562193,0.4144736842105263
101,0.04873256042444488,0.45394736842105265,0.04264099037138927,0.4407894736842105,0.07486736097465121,0.4144736842105263
102,0.049125564943996856,0.45394736842105265,0.04264099037138927,0.4473684210526316,0.07486736097465121,0.42105263157894735
103,0.049125564943996856,0.4605263157894737,0.043426999410493224,0.4473684210526316,0.07565337001375516,0.42105263157894735
104,0.0499115739831008,0.4605263157894737,0.043426999410493224,0.45394736842105265,0.07565337001375516,0.4342105263157895
105,0.0499115739831008,0.46710526315789475,0.04637453330713303,0.45394736842105265,0.07584987227353114,0.4342105263157895
106,0.05030457850265278,0.46710526315789475,0.04637453330713303,0.4605263157894737,0.07584987227353114,0.4407894736842105
107,0.05030457850265278,0.47368421052631576,0.04892906268422087,0.4605263157894737,0.07683238357241108,0.4407894736842105
108,0.0561996462959324,0.47368421052631576,0.04892906268422087,0.47368421052631576,0.07683238357241108,0.4473684210526316
109,0.0561996462959324,0.48026315789473684,0.051287089801532716,0.47368421052631576,0.07722538809196305,0.4473684210526316
110,0.056592650815484376,0.48026315789473684,0.051287089801532716,0.48026315789473684,0.07722538809196305,0.45394736842105265
111,0.056592650815484376,0.4868421052631579,0.0514835920613087,0.48026315789473684,0.08076242876793083,0.45394736842105265
112,0.05895067793279623,0.4868421052631579,0.0514835920613087,0.4868421052631579,0.08076242876793083,0.4605263157894737
113,0.05895067793279623,0.4934210526315789,0.05168009432108469,0.4868421052631579,0.08233444684613873,0.4605263157894737
114,0.06150520730988406,0.4934210526315789,0.05168009432108469,0.5,0.08233444684613873,0.46710526315789475
115,0.06150520730988406,0.5,0.052269601100412656,0.5,0.08606798978188249,0.46710526315789475
116,0.06523875024562782,0.5,0.052269601100412656,0.506578947368421,0.08606798978188249,0.47368421052631576
117,0.06523875024562782,0.5131578947368421,0.057575162114364316,0.506578947368421,0.08626449204165848,0.47368421052631576
118,0.06641776380428376,0.5131578947368421,0.057575162114364316,0.5131578947368421,0.08626449204165848,0.48026315789473684
119,0.06641776380428376,0.5197368421052632,0.0577716643741403,0.5131578947368421,0.08724700334053842,0.48026315789473684
120,0.08410296718412262,0.5197368421052632,0.0577716643741403,0.5197368421052632,0.08724700334053842,0.4868421052631579
121,0.08410296718412262,0.5263157894736842,0.06150520730988406,0.5197368421052632,0.08999803497740225,0.4868421052631579
122,0.08547848300255453,0.5263157894736842,0.06150520730988406,0.5263157894736842,0.08999803497740225,0.4934210526315789
123,0.08547848300255453,0.5328947368421053,0.06445274120652388,0.5263157894736842,0.09333857339359403,0.4934210526315789
124,0.09235606209471409,0.5328947368421053,0.06445274120652388,0.5394736842105263,0.09333857339359403,0.5
125,0.09235606209471409,0.5394736842105263,0.0656317547651798,0.5394736842105263,0.093928080172922,0.5
126,0.0953035959913539,0.5394736842105263,0.0656317547651798,0.5460526315789473,0.093928080172922,0.506578947368421
127,0.0953035959913539,0.5460526315789473,0.06740027510316368,0.5460526315789473,0.09412458243269797,0.506578947368421
128,0.09648260955000983,0.5460526315789473,0.06740027510316368,0.5526315789473685,0.09412458243269797,0.5197368421052632
129,0.09648260955000983,0.5526315789473685,0.07113381803890745,0.5526315789473685,0.09510709373157791,0.5197368421052632
130,0.09746512084888977,0.5526315789473685,0.07113381803890745,0.5592105263157895,0.09510709373157791,0.5263157894736842
131,0.09746512084888977,0.5592105263157895,0.078207899390843,0.5592105263157895,0.09608960503045785,0.5263157894736842
132,0.09785812536844174,0.5592105263157895,0.078207899390843,0.5657894736842105,0.09608960503045785,0.5328947368421053
133,0.09785812536844174,0.5657894736842105,0.08017292198860287,0.5657894736842105,0.0966791118097858,0.5328947368421053
134,0.09943014344664963,0.5657894736842105,0.08017292198860287,0.5723684210526315,0.0966791118097858,0.5394736842105263
135,0.09943014344664963,0.5723684210526315,0.08174494006681077,0.5723684210526315,0.09844763214776969,0.5394736842105263
136,0.10100216152485754,0.5723684210526315,0.08174494006681077,0.5789473684210527,0.09844763214776969,0.5460526315789473
137,0.10100216152485754,0.5789473684210527,0.08488897622322657,0.5789473684210527,0.0998231479662016,0.5460526315789473
138,0.10218117508351346,0.5789473684210527,0.08488897622322657,0.5855263157894737,0.0998231479662016,0.5592105263157895
139,0.10218117508351346,0.5855263157894737,0.08508547848300256,0.5855263157894737,0.10866574965612105,0.5592105263157895
140,0.11122027903320889,0.5855263157894737,0.08508547848300256,0.5921052631578947,0.10866574965612105,0.5657894736842105
141,0.11122027903320889,0.5921052631578947,0.09117704853605817,0.5921052631578947,0.11102377677343289,0.5657894736842105
142,0.11180978581253684,0.5921052631578947,0.09117704853605817,0.5986842105263158,0.11102377677343289,0.5723684210526315
143,0.11180978581253684,0.5986842105263158,0.10100216152485754,0.5986842105263158,0.11141678129298486,0.5723684210526315
144,0.1157398310080566,0.5986842105263158,0.10100216152485754,0.6052631578947368,0.11141678129298486,0.5789473684210527
145,0.1157398310080566,0.6052631578947368,0.10375319316172137,0.6052631578947368,0.11338180389074475,0.5789473684210527
146,0.11613283552760857,0.6052631578947368,0.10375319316172137,0.6118421052631579,0.11338180389074475,0.5855263157894737
147,0.11613283552760857,0.6118421052631579,0.10473570446060129,0.6118421052631579,0.1155433287482806,0.5855263157894737
148,0.11632933778738455,0.6118421052631579,0.10473570446060129,0.618421052631579,0.1155433287482806,0.5921052631578947
149,0.11632933778738455,0.618421052631579,0.10591471801925723,0.618421052631579,0.11672234230693652,0.5921052631578947
150,0.11750835134604048,0.618421052631579,0.10591471801925723,0.625,0.11672234230693652,0.5986842105263158
151,0.11750835134604048,0.631578947368421,0.1061112202790332,0.625,0.1188838671644724,0.5986842105263158
152,0.11849086264492041,0.631578947368421,0.1061112202790332,0.631578947368421,0.1188838671644724,0.6052631578947368
153,0.11849086264492041,0.6381578947368421,0.10729023383768914,0.631578947368421,0.11927687168402437,0.6052631578947368
154,0.12006288072312832,0.6381578947368421,0.10729023383768914,0.6381578947368421,0.11927687168402437,0.6118421052631579
155,0.12006288072312832,0.6447368421052632,0.10748673609746512,0.6381578947368421,0.12222440558066418,0.6118421052631579
156,0.12124189428178424,0.6447368421052632,0.10748673609746512,0.6447368421052632,0.12222440558066418,0.618421052631579
157,0.12124189428178424,0.6513157894736842,0.1125957948516408,0.6447368421052632,0.12301041461976812,0.618421052631579
158,0.12143839654156023,0.6513157894736842,0.1125957948516408,0.6513157894736842,0.12301041461976812,0.625
159,0.12143839654156023,0.6578947368421053,0.11632933778738455,0.6513157894736842,0.12418942817842406,0.625
160,0.12163489880133621,0.6578947368421053,0.11632933778738455,0.6578947368421053,0.12418942817842406,0.631578947368421
161,0.12163489880133621,0.6644736842105263,0.12124189428178424,0.6578947368421053,0.12556494399685597,0.631578947368421
162,0.12379642365887207,0.6644736842105263,0.12124189428178424,0.6644736842105263,0.12556494399685597,0.6381578947368421
163,0.12379642365887207,0.6710526315789473,0.12458243269797603,0.6644736842105263,0.1283159756337198,0.6381578947368421
164,0.12517193947730398,0.6710526315789473,0.12458243269797603,0.6776315789473685,0.1283159756337198,0.6447368421052632
165,0.12517193947730398,0.6776315789473685,0.15523678522303005,0.6776315789473685,0.12870898015327176,0.6447368421052632
166,0.12752996659461585,0.6776315789473685,0.15523678522303005,0.6842105263157895,0.12870898015327176,0.6513157894736842
167,0.12752996659461585,0.6842105263157895,0.156415798781686,0.6842105263157895,0.1312635095303596,0.6513157894736842
168,0.12870898015327176,0.6842105263157895,0.156415798781686,0.6907894736842105,0.1312635095303596,0.6578947368421053
169,0.12870898015327176,0.6973684210526315,0.15916683041854982,0.6907894736842105,0.13303202986834348,0.6578947368421053
170,0.12929848693259974,0.6973684210526315,0.15916683041854982,0.6973684210526315,0.13303202986834348,0.6644736842105263
171,0.12929848693259974,0.7039473684210527,0.16191786205541364,0.6973684210526315,0.13892709766162312,0.6644736842105263
172,0.13263902534879152,0.7039473684210527,0.16191786205541364,0.7039473684210527,0.13892709766162312,0.6710526315789473
173,0.13263902534879152,0.7171052631578947,0.1640793869129495,0.7039473684210527,0.15130674002751032,0.6710526315789473
174,0.13499705246610336,0.7171052631578947,0.1640793869129495,0.7105263157894737,0.15130674002751032,0.6776315789473685
175,0.13499705246610336,0.7236842105263158,0.1670269208095893,0.7105263157894737,0.15150324228728632,0.6776315789473685
176,0.13794458636274318,0.7236842105263158,0.1670269208095893,0.7171052631578947,0.15150324228728632,0.6842105263157895
177,0.13794458636274318,0.7302631578947368,0.16781292984869325,0.7171052631578947,0.15386126940459816,0.6842105263157895
178,0.13873059540184712,0.7302631578947368,0.16781292984869325,0.7236842105263158,0.15386126940459816,0.6907894736842105
179,0.13873059540184712,0.7368421052631579,0.16840243662802123,0.7236842105263158,0.1577913146001179,0.6907894736842105
180,0.13971310670072706,0.7368421052631579,0.16840243662802123,0.7302631578947368,0.1577913146001179,0.6973684210526315
181,0.13971310670072706,0.743421052631579,0.17115346826488503,0.7302631578947368,0.15897032815877382,0.6973684210526315
182,0.1420711338180389,0.743421052631579,0.17115346826488503,0.7368421052631579,0.15897032815877382,0.7105263157894737
183,0.1420711338180389,0.75,0.17567302023973275,0.7368421052631579,0.1607388484967577,0.7105263157894737
184,0.1424641383375909,0.75,0.17567302023973275,0.743421052631579,0.1607388484967577,0.7171052631578947
185,0.1424641383375909,0.756578947368421,0.17763804283749263,0.743421052631579,0.1625073688347416,0.7171052631578947
186,0.14266064059736688,0.756578947368421,0.17763804283749263,0.75,0.1625073688347416,0.7236842105263158
187,0.14266064059736688,0.7631578947368421,0.17842405187659657,0.75,0.16290037335429358,0.7236842105263158
188,0.1438396541560228,0.7631578947368421,0.17842405187659657,0.756578947368421,0.16290037335429358,0.7302631578947368
189,0.1438396541560228,0.7763157894736842,0.19041068972293182,0.756578947368421,0.16820593436824524,0.7302631578947368
190,0.14521516997445472,0.7763157894736842,0.19041068972293182,0.7631578947368421,0.16820593436824524,0.7368421052631579
191,0.14521516997445472,0.7828947368421053,0.19748477107486737,0.7631578947368421,0.1685989388877972,0.7368421052631579
192,0.14894871291019846,0.7828947368421053,0.19748477107486737,0.7697368421052632,0.1685989388877972,0.743421052631579
193,0.14894871291019846,0.7894736842105263,0.20396934564747496,0.7697368421052632,0.17076046374533307,0.743421052631579
194,0.1499312242090784,0.7894736842105263,0.20396934564747496,0.7763157894736842,0.17076046374533307,0.75
195,0.1499312242090784,0.7960526315789473,0.20495185694635487,0.7763157894736842,0.1799960699548045,0.75
196,0.15562978974258204,0.7960526315789473,0.20495185694635487,0.7828947368421053,0.1799960699548045,0.756578947368421
197,0.15562978974258204,0.8026315789473685,0.23796423658872076,0.7828947368421053,0.1809785812536844,0.756578947368421
198,0.15661230104146198,0.8026315789473685,0.23796423658872076,0.7894736842105263,0.1809785812536844,0.7631578947368421
199,0.15661230104146198,0.8092105263157895,0.23992925918648064,0.7894736842105263,0.18314010611122028,0.7631578947368421
200,0.1611318530163097,0.8092105263157895,0.23992925918648064,0.7960526315789473,0.18314010611122028,0.7697368421052632
201,0.1611318530163097,0.8157894736842105,0.25034387895460797,0.7960526315789473,0.19689526429553939,0.7697368421052632
202,0.16447239143250147,0.8157894736842105,0.25034387895460797,0.8026315789473685,0.19689526429553939,0.7763157894736842
203,0.16447239143250147,0.8223684210526315,0.25270190607191984,0.8026315789473685,0.19748477107486737,0.7763157894736842
204,0.16918844566712518,0.8223684210526315,0.25270190607191984,0.8092105263157895,0.19748477107486737,0.7828947368421053
205,0.16918844566712518,0.8289473684210527,0.25957948516407936,0.8092105263157895,0.19768127333464336,0.7828947368421053
206,0.16958145018667714,0.8289473684210527,0.25957948516407936,0.8157894736842105,0.19768127333464336,0.7894736842105263
207,0.16958145018667714,0.8355263157894737,0.26154450776183924,0.8157894736842105,0.1982707801139713,0.7894736842105263
208,0.17233248182354097,0.8355263157894737,0.26154450776183924,0.8223684210526315,0.1982707801139713,0.7960526315789473
209,0.17233248182354097,0.8421052631578947,0.27019060719198273,0.8223684210526315,0.20514835920613086,0.7960526315789473
210,0.17606602475928473,0.8421052631578947,0.27019060719198273,0.8289473684210527,0.20514835920613086,0.8026315789473685
211,0.17606602475928473,0.8486842105263158,0.27746119080369425,0.8289473684210527,0.21163293377873846,0.8026315789473685
212,0.18844566712517194,0.8486842105263158,0.27785419532324623,0.8289473684210527,0.21163293377873846,0.8092105263157895
213,0.18844566712517194,0.8552631578947368,0.29770092356062094,0.8289473684210527,0.21182943603851445,0.8092105263157895
214,0.1890351739044999,0.8552631578947368,0.29770092356062094,0.8355263157894737,0.21182943603851445,0.8157894736842105
215,0.1890351739044999,0.8618421052631579,0.30949105914718017,0.8355263157894737,0.2263706032619375,0.8157894736842105
216,0.19021418746315583,0.8618421052631579,0.30949105914718017,0.8421052631578947,0.2263706032619375,0.8223684210526315
217,0.19021418746315583,0.868421052631579,0.3112595794851641,0.8421052631578947,0.2438593043820004,0.8223684210526315
218,0.19080369424248378,0.868421052631579,0.3112595794851641,0.8486842105263158,0.2438593043820004,0.8289473684210527
219,0.19080369424248378,0.875,0.31931617213597957,0.8486842105263158,0.265867557476911,0.8289473684210527
220,0.19925329141285125,0.875,0.31931617213597957,0.8552631578947368,0.265867557476911,0.8355263157894737
221,0.19925329141285125,0.881578947368421,0.3214776969935154,0.8552631578947368,0.2707801139713107,0.8355263157894737
222,0.21006091570053056,0.881578947368421,0.3214776969935154,0.868421052631579,0.2707801139713107,0.8421052631578947
223,0.21006091570053056,0.8881578947368421,0.32560424444881114,0.868421052631579,0.27215562978974256,0.8421052631578947
224,0.22538809196305756,0.8881578947368421,0.32560424444881114,0.875,0.27215562978974256,0.8486842105263158
225,0.22538809196305756,0.8947368421052632,0.33169581450186675,0.875,0.280998231479662,0.8486842105263158
226,0.25525643544900767,0.8947368421052632,0.33169581450186675,0.881578947368421,0.280998231479662,0.8552631578947368
227,0.25525643544900767,0.9013157894736842,0.3342503438789546,0.881578947368421,0.2878758105718216,0.8552631578947368
228,0.26331302809982315,0.9013157894736842,0.3342503438789546,0.8881578947368421,0.2878758105718216,0.8618421052631579
229,0.26331302809982315,0.9078947368421053,0.3466299862448418,0.8881578947368421,0.31342110434269993,0.8618421052631579
230,0.312045588524268,0.9078947368421053,0.3466299862448418,0.8947368421052632,0.31342110434269993,0.868421052631579
231,0.312045588524268,0.9144736842105263,0.35370406759677736,0.8947368421052632,0.3234427195912753,0.868421052631579
232,0.32167419925329144,0.9144736842105263,0.35370406759677736,0.9013157894736842,0.3234427195912753,0.875
233,0.32167419925329144,0.9210526315789473,0.36470819414423267,0.9013157894736842,0.3489880133621537,0.875
234,0.34957752014148163,0.9210526315789473,0.36470819414423267,0.9078947368421053,0.3489880133621537,0.881578947368421
235,0.34957752014148163,0.9276315789473685,0.38651994497936726,0.9078947368421053,0.359402633130281,0.881578947368421
236,0.35606209471408923,0.9276315789473685,0.38651994497936726,0.9144736842105263,0.359402633130281,0.8881578947368421
237,0.35606209471408923,0.9342105263157895,0.3890744743564551,0.9144736842105263,0.3623501670269208,0.8881578947368421
238,0.42051483592061306,0.9342105263157895,0.3890744743564551,0.9210526315789473,0.3623501670269208,0.8947368421052632
239,0.42051483592061306,0.9407894736842105,0.3951660444095107,0.9210526315789473,0.36510119866378465,0.8947368421052632
240,0.421497347219493,0.9407894736842105,0.3951660444095107,0.9276315789473685,0.36510119866378465,0.9013157894736842
241,0.421497347219493,0.9473684210526315,0.4271959127529967,0.9276315789473685,0.4032226370603262,0.9013157894736842
242,0.516407938691295,0.9473684210526315,0.4271959127529967,0.9342105263157895,0.4032226370603262,0.9078947368421053
243,0.516407938691295,0.9539473684210527,0.45392022008253097,0.9342105263157895,0.42582039693456475,0.9078947368421053
244,0.5213204951856947,0.9539473684210527,0.45392022008253097,0.9407894736842105,0.42582039693456475,0.9144736842105263
245,0.5213204951856947,0.9605263157894737,0.4606012969149145,0.9407894736842105,0.43348398506582825,0.9144736842105263
246,0.5219100019650226,0.9605263157894737,0.4609943014344665,0.9407894736842105,0.43348398506582825,0.9210526315789473
247,0.5219100019650226,0.9671052631578947,0.47396345057968164,0.9407894736842105,0.4549027313814109,0.9210526315789473
248,0.6150520730988407,0.9671052631578947,0.47396345057968164,0.9473684210526315,0.4549027313814109,0.9276315789473685
249,0.6150520730988407,0.9736842105263158,0.49872273531145606,0.9473684210526315,0.4780899980349774,0.9276315789473685
250,0.6215366476714482,0.9736842105263158,0.49911573983100804,0.9473684210526315,0.4780899980349774,0.9342105263157895
251,0.6215366476714482,0.9802631578947368,0.5124778934957752,0.9473684210526315,0.4981332285321281,0.9342105263157895
252,0.656317547651798,0.9802631578947368,0.5128708980153271,0.9473684210526315,0.4981332285321281,0.9407894736842105
253,0.656317547651798,0.9868421052631579,0.517193947730399,0.9473684210526315,0.5199449793672627,0.9407894736842105
254,0.672037728433877,0.9868421052631579,0.517193947730399,0.9539473684210527,0.5199449793672627,0.9473684210526315
255,0.672037728433877,0.993421052631579,0.5280015720180782,0.9539473684210527,0.6040479465513854,0.9473684210526315
256,0.6755747691098447,0.993421052631579,0.5280015720180782,0.9605263157894737,0.6040479465513854,0.9539473684210527
257,0.6755747691098447,1.0,0.5452937708783651,0.9605263157894737,0.6329337787384555,0.9539473684210527
258,1.0,1.0,0.5452937708783651,0.9671052631578947,0.6329337787384555,0.9605263157894737
259,,,0.5527608567498526,0.9671052631578947,0.6384358420121832,0.9605263157894737
260,,,0.5527608567498526,0.9736842105263158,0.6384358420121832,0.9671052631578947
261,,,0.5606209471408922,0.9736842105263158,0.7807034780899981,0.9671052631578947
262,,,0.5606209471408922,0.9802631578947368,0.7807034780899981,0.9736842105263158
263,,,0.5667125171939478,0.9802631578947368,0.8504617803104736,0.9736842105263158
264,,,0.5667125171939478,0.9868421052631579,0.8504617803104736,0.9802631578947368
265,,,0.6191786205541364,0.9868421052631579,0.8555708390646493,0.9802631578947368
266,,,0.6195716250736883,0.9868421052631579,0.8555708390646493,0.9868421052631579
267,,,0.6724307329534289,0.9868421052631579,0.8872077028885832,0.9868421052631579
268,,,0.672823737472981,0.9868421052631579,0.8872077028885832,0.993421052631579
269,,,0.6797013165651405,0.9868421052631579,0.9923364118687364,0.993421052631579
270,,,0.6800943210846925,0.9868421052631579,0.9923364118687364,1.0
271,,,0.7907250933385734,0.9868421052631579,1.0,1.0
272,,,0.7911180978581254,0.9868421052631579,,
273,,,0.8258989978384751,0.9868421052631579,,
274,,,0.8262920023580271,0.9868421052631579,,
275,,,0.8319905678915308,0.9868421052631579,,
276,,,0.8319905678915308,0.993421052631579,,
277,,,0.859697386519945,0.993421052631579,,
278,,,0.8600903910394969,0.993421052631579,,
279,,,0.8756140695618,0.993421052631579,,
280,,,0.8760070740813519,0.993421052631579,,
281,,,0.8897622322656711,0.993421052631579,,
282,,,0.890155236785223,0.993421052631579,,
283,,,0.9428178424051876,0.993421052631579,,
284,,,0.9432108469247397,0.993421052631579,,
285,,,0.9591275299665946,0.993421052631579,,
286,,,0.9591275299665946,1.0,,
287,,,0.9789742582039693,1.0,,
288,,,0.9793672627235214,1.0,,
289,,,0.983886814698369,1.0,,
290,,,0.984279819217921,1.0,,
291,,,1.0,1.0,,
